<svg width="20" height="16" viewBox="0 0 20 16" fill="none" xmlns="http://www.w3.org/2000/svg">
<path d="M17.9706 3.98687C18.2377 9.65245 13.9119 16 6.30174 16C3.97864 16 1.81576 15.3443 0 14.1902C2.18959 14.4525 4.35246 13.8492 6.08811 12.5115C4.29905 12.4852 2.77701 11.3049 2.24297 9.70492C2.88382 9.83607 3.52468 9.78359 4.08543 9.62622C2.10946 9.23277 0.747665 7.47542 0.801069 5.61312C1.36182 5.92788 1.97597 6.08523 2.67023 6.11146C0.827771 4.9049 0.320415 2.54424 1.38851 0.734407C3.41788 3.17375 6.43523 4.77378 9.85312 4.95738C9.26567 2.43935 11.2149 0 13.8585 0C15.0334 0 16.1015 0.498367 16.8491 1.28525C17.7837 1.10165 18.6649 0.760643 19.466 0.314741C19.1455 1.259 18.5047 2.04589 17.6502 2.54425C18.478 2.43933 19.279 2.22949 20 1.91473C19.466 2.70162 18.7717 3.40982 17.9706 3.98687Z" fill="white"/>
</svg>
